{
  "kind": "collectionType",
  "collectionName": "orderEntries",
  "info": {
    "name": "orderEntry"
  },
  "options": {
    "increments": true,
    "timestamps": true
  },
  "attributes": {
    "product": {
      "model": "product"
    },
    "quantity": {
      "type": "integer",
      "required": true,
      "default": 1
    },
    "price": {
      "type": "integer",
      "required": false
    },
    "order": {
      "via": "orderEntries",
      "model": "order"
    }
  }
}
